…
`ndi` will extract census estimates at the tract level, transform the variables, and then perform a Principal Component Analysis by using the arguments *State* and *County*. Since this index has been previously validated, the function only extracts one component.

### Examples

``` r
library(tidycensus)
library(tidyverse)
library(psych)

source("R/ndi.R")

ndi("NY","Onondaga")
```

    ## # A tibble: 140 x 13
    ##    Tract County State GEOID     NDI pct_poverty pct_noHS pct_FHH pct_mgmt
    ##    <chr> <chr>  <chr> <chr>   <dbl>       <dbl>    <dbl>   <dbl>    <dbl>
    ##  1 Cens~ Onond~ New ~ 3606~ -0.581        0.163   0.156    0        0.722
    ##  2 Cens~ Onond~ New ~ 3606~  0.907        0.372   0.170    0.412    0.309
    ##  3 Cens~ Onond~ New ~ 3606~  0.0150       0.104   0.137    0.295    0.306
    ##  4 Cens~ Onond~ New ~ 3606~ -0.0275       0.212   0.156    0.201    0.369
    ##  5 Cens~ Onond~ New ~ 3606~  2.15         0.445   0.397    0.353    0.160
    ##  6 Cens~ Onond~ New ~ 3606~  1.87         0.390   0.401    0.359    0.115
    ##  7 Cens~ Onond~ New ~ 3606~  1.15         0.233   0.261    0.445    0.182
    ##  8 Cens~ Onond~ New ~ 3606~  0.371        0.243   0.212    0.263    0.310
    ##  9 Cens~ Onond~ New ~ 3606~ -0.534        0.113   0.0884   0.182    0.457
    ## 10 Cens~ Onond~ New ~ 3606~  0.648        0.267   0.153    0.545    0.303
    ## # ... with 130 more rows, and 4 more variables: pct_crowd <dbl>,
    ## #   pct_pubassist <dbl>, pct_unempl <dbl>, pct_under30K <dbl>
…
